<?xml version="1.0" encoding="utf-8"?>
<!-- Generator: Adobe Illustrator 24.2.0, SVG Export Plug-In . SVG Version: 6.00 Build 0)  -->
<svg version="1.1" id="Layer_1" xmlns:svgjs="http://svgjs.com/svgjs"
	 xmlns="http://www.w3.org/2000/svg" xmlns:xlink="http://www.w3.org/1999/xlink" x="0px" y="0px" viewBox="0 0 512 512"
	 style="enable-background:new 0 0 512 512;" xml:space="preserve">
<style type="text/css">
	.st0{fill:#464748;stroke:#464748;stroke-width:10;stroke-linecap:round;stroke-miterlimit:10;}
	.st1{fill:#464748;stroke:#68E3D7;stroke-width:15;stroke-miterlimit:10;}
	.st2{fill:#464748;stroke:#68E3D7;stroke-width:10;stroke-linecap:round;stroke-miterlimit:10;}
	.st3{fill:#464748;stroke:#68E3D7;stroke-width:20;stroke-linecap:round;stroke-miterlimit:10;}
</style>
<rect class="st0" width="512" height="512"/>
<rect x="22.5" y="21.5" class="st1" width="469" height="469"/>
<rect x="474" y="8" class="st2" width="29" height="29"/>
<rect x="10" y="8" class="st2" width="29" height="29"/>
<rect x="11" y="475.5" class="st2" width="29" height="29"/>
<rect x="473.5" y="475.5" class="st2" width="29" height="29"/>
<rect x="67" y="67" class="st3" width="271" height="228"/>
<rect x="178" y="218.5" class="st3" width="271" height="228"/>
</svg>
